[gd_resource type="AudioBusLayout" format=2]

[resource]
bus/1/name = "BG Music"
bus/1/solo = false
bus/1/mute = false
bus/1/bypass_fx = false
bus/1/volume_db = 0.0
bus/1/send = "Master"
bus/2/name = "SFX"
bus/2/solo = false
bus/2/mute = false
bus/2/bypass_fx = false
bus/2/volume_db = 0.0
bus/2/send = "Master"
bus/3/name = "Gun Sounds"
bus/3/solo = false
bus/3/mute = false
bus/3/bypass_fx = false
bus/3/volume_db = 0.0
bus/3/send = "SFX"
bus/4/name = "Monster Sounds"
bus/4/solo = false
bus/4/mute = false
bus/4/bypass_fx = false
bus/4/volume_db = 0.0
bus/4/send = "SFX"
bus/5/name = "Environment Sounds"
bus/5/solo = false
bus/5/mute = false
bus/5/bypass_fx = false
bus/5/volume_db = 0.0
bus/5/send = "SFX"
bus/6/name = "Player Sounds"
bus/6/solo = false
bus/6/mute = false
bus/6/bypass_fx = false
bus/6/volume_db = -1.91476
bus/6/send = "SFX"
