[gd_resource type="DynamicFont" load_steps=2 format=2]

[ext_resource path="res://demigod-oldschool/DemigoD Oldschool.ttf" type="DynamicFontData" id=1]

[resource]
size = 96
font_data = ExtResource( 1 )
