[gd_scene load_steps=33 format=2]

[ext_resource path="res://player/Player.tscn" type="PackedScene" id=1]
[ext_resource path="res://enemies/RunnerMonster.tscn" type="PackedScene" id=2]
[ext_resource path="res://LevelTransition.tscn" type="PackedScene" id=3]
[ext_resource path="res://world/tiles.png" type="Texture" id=4]
[ext_resource path="res://Game.gd" type="Script" id=5]
[ext_resource path="res://enemies/StumpMonster.tscn" type="PackedScene" id=6]
[ext_resource path="res://player/HealthPickup.tscn" type="PackedScene" id=7]
[ext_resource path="res://world/ItemPickup.tscn" type="PackedScene" id=8]
[ext_resource path="res://world/exit-indicator.png" type="Texture" id=9]
[ext_resource path="res://world/ElevatorDoor.tscn" type="PackedScene" id=10]
[ext_resource path="res://world/ExitLevelArea.tscn" type="PackedScene" id=11]
[ext_resource path="res://world/ElevatorLever.tscn" type="PackedScene" id=12]
[ext_resource path="res://Level4.tscn" type="PackedScene" id=13]
[ext_resource path="res://music/sad 2.mp3" type="AudioStream" id=14]
[ext_resource path="res://world/slumpbody.png" type="Texture" id=15]
[ext_resource path="res://world/floorbody.png" type="Texture" id=16]
[ext_resource path="res://world/tile-decorations.png" type="Texture" id=17]
[ext_resource path="res://world/painting.png" type="Texture" id=18]
[ext_resource path="res://world/desk.png" type="Texture" id=19]
[ext_resource path="res://world/table.png" type="Texture" id=20]
[ext_resource path="res://world/stool.png" type="Texture" id=21]
[ext_resource path="res://world/HiddenFace.tscn" type="PackedScene" id=22]

[sub_resource type="ConvexPolygonShape2D" id=1]
points = PoolVector2Array( 0, 128, 0, 96, 96, 96, 96, 128, 32, 128, 32, 128 )

[sub_resource type="ConvexPolygonShape2D" id=2]
points = PoolVector2Array( 96, 128, 0, 128, 0, 96, 96, 96 )

[sub_resource type="ConvexPolygonShape2D" id=3]
points = PoolVector2Array( 0, 96, 96, 96, 96, 128, 0, 128 )

[sub_resource type="ConvexPolygonShape2D" id=4]
points = PoolVector2Array( 96, 128, 0, 128, 0, 96, 96, 96 )

[sub_resource type="TileSet" id=5]
0/name = "tiles.png 0"
0/texture = ExtResource( 4 )
0/tex_offset = Vector2( 0, 0 )
0/modulate = Color( 1, 1, 1, 1 )
0/region = Rect2( 0, 96, 96, 64 )
0/tile_mode = 0
0/occluder_offset = Vector2( 0, 0 )
0/navigation_offset = Vector2( 0, 0 )
0/shape_offset = Vector2( 0, 0 )
0/shape_transform = Transform2D( 1, 0, 0, 1, 0, 0 )
0/shape_one_way = false
0/shape_one_way_margin = 0.0
0/shapes = [  ]
0/z_index = 0
1/name = "tiles.png 1"
1/texture = ExtResource( 4 )
1/tex_offset = Vector2( 0, -96 )
1/modulate = Color( 1, 1, 1, 1 )
1/region = Rect2( 96, 0, 96, 160 )
1/tile_mode = 0
1/occluder_offset = Vector2( 0, 0 )
1/navigation_offset = Vector2( 0, 0 )
1/shape_offset = Vector2( 0, -96 )
1/shape_transform = Transform2D( 1, 0, 0, 1, 0, -96 )
1/shape = SubResource( 1 )
1/shape_one_way = false
1/shape_one_way_margin = 1.0
1/shapes = [ {
"autotile_coord": Vector2( 0, 0 ),
"one_way": false,
"one_way_margin": 1.0,
"shape": SubResource( 1 ),
"shape_transform": Transform2D( 1, 0, 0, 1, 0, -96 )
} ]
1/z_index = 0
2/name = "tiles.png 2"
2/texture = ExtResource( 4 )
2/tex_offset = Vector2( 0, -96 )
2/modulate = Color( 1, 1, 1, 1 )
2/region = Rect2( 192, 0, 96, 160 )
2/tile_mode = 0
2/occluder_offset = Vector2( 0, 0 )
2/navigation_offset = Vector2( 0, 0 )
2/shape_offset = Vector2( 0, 0 )
2/shape_transform = Transform2D( 1, 0, 0, 1, 0, 0 )
2/shape_one_way = false
2/shape_one_way_margin = 0.0
2/shapes = [  ]
2/z_index = 0
3/name = "tiles.png 3"
3/texture = ExtResource( 4 )
3/tex_offset = Vector2( 0, -96 )
3/modulate = Color( 1, 1, 1, 1 )
3/region = Rect2( 288, 0, 96, 160 )
3/tile_mode = 0
3/occluder_offset = Vector2( 0, 0 )
3/navigation_offset = Vector2( 0, 0 )
3/shape_offset = Vector2( 0, -96 )
3/shape_transform = Transform2D( 1, 0, 0, 1, 0, -96 )
3/shape = SubResource( 2 )
3/shape_one_way = false
3/shape_one_way_margin = 1.0
3/shapes = [ {
"autotile_coord": Vector2( 0, 0 ),
"one_way": false,
"one_way_margin": 1.0,
"shape": SubResource( 2 ),
"shape_transform": Transform2D( 1, 0, 0, 1, 0, -96 )
} ]
3/z_index = 0
4/name = "tiles.png 4"
4/texture = ExtResource( 4 )
4/tex_offset = Vector2( 0, -96 )
4/modulate = Color( 1, 1, 1, 1 )
4/region = Rect2( 384, 0, 96, 160 )
4/tile_mode = 0
4/occluder_offset = Vector2( 0, 0 )
4/navigation_offset = Vector2( 0, 0 )
4/shape_offset = Vector2( 0, -96 )
4/shape_transform = Transform2D( 1, 0, 0, 1, 0, -96 )
4/shape = SubResource( 3 )
4/shape_one_way = false
4/shape_one_way_margin = 1.0
4/shapes = [ {
"autotile_coord": Vector2( 0, 0 ),
"one_way": false,
"one_way_margin": 1.0,
"shape": SubResource( 3 ),
"shape_transform": Transform2D( 1, 0, 0, 1, 0, -96 )
} ]
4/z_index = 0
5/name = "tiles.png 5"
5/texture = ExtResource( 4 )
5/tex_offset = Vector2( 0, -96 )
5/modulate = Color( 1, 1, 1, 1 )
5/region = Rect2( 480, 0, 96, 160 )
5/tile_mode = 0
5/occluder_offset = Vector2( 0, 0 )
5/navigation_offset = Vector2( 0, 0 )
5/shape_offset = Vector2( 0, 0 )
5/shape_transform = Transform2D( 1, 0, 0, 1, 0, 0 )
5/shape_one_way = false
5/shape_one_way_margin = 0.0
5/shapes = [  ]
5/z_index = 0
6/name = "tiles.png 6"
6/texture = ExtResource( 4 )
6/tex_offset = Vector2( 0, -96 )
6/modulate = Color( 1, 1, 1, 1 )
6/region = Rect2( 576, 0, 96, 160 )
6/tile_mode = 0
6/occluder_offset = Vector2( 0, 0 )
6/navigation_offset = Vector2( 0, 0 )
6/shape_offset = Vector2( 0, -96 )
6/shape_transform = Transform2D( 1, 0, 0, 1, 0, -96 )
6/shape = SubResource( 4 )
6/shape_one_way = false
6/shape_one_way_margin = 1.0
6/shapes = [ {
"autotile_coord": Vector2( 0, 0 ),
"one_way": false,
"one_way_margin": 1.0,
"shape": SubResource( 4 ),
"shape_transform": Transform2D( 1, 0, 0, 1, 0, -96 )
} ]
6/z_index = 0

[sub_resource type="GDScript" id=6]
script/source = "extends Area2D

var level_transition_scene = preload(\"res://LevelTransition.tscn\")

export(PackedScene) var next_level
# Declare member variables here. Examples:
# var a = 2
# var b = \"text\"


# Called when the node enters the scene tree for the first time.
func _ready():
	pass # Replace with function body.


# Called every frame. 'delta' is the elapsed time since the previous frame.
#func _process(delta):
#	pass


func _on_ExitLevelArea_body_entered(body):
	if body.is_in_group(\"player\"):
		next_level()
		
func next_level():
	var ts = level_transition_scene.instance()
	ts.transition_to_level = next_level
	get_tree().root.add_child(ts)
"

[sub_resource type="RectangleShape2D" id=7]
extents = Vector2( 43.5533, 16.4386 )

[sub_resource type="Animation" id=8]
length = 2.0
tracks/0/type = "value"
tracks/0/path = NodePath(".:volume_db")
tracks/0/interp = 1
tracks/0/loop_wrap = true
tracks/0/imported = false
tracks/0/enabled = true
tracks/0/keys = {
"times": PoolRealArray( 0, 2 ),
"transitions": PoolRealArray( 1, 1 ),
"update": 0,
"values": [ -30.0, 0.0 ]
}
tracks/1/type = "value"
tracks/1/path = NodePath(".:playing")
tracks/1/interp = 1
tracks/1/loop_wrap = true
tracks/1/imported = false
tracks/1/enabled = true
tracks/1/keys = {
"times": PoolRealArray( 0 ),
"transitions": PoolRealArray( 1 ),
"update": 1,
"values": [ true ]
}

[sub_resource type="Animation" id=9]
length = 30.0
loop = true
tracks/0/type = "value"
tracks/0/path = NodePath(".:pitch_scale")
tracks/0/interp = 1
tracks/0/loop_wrap = true
tracks/0/imported = false
tracks/0/enabled = true
tracks/0/keys = {
"times": PoolRealArray( 0, 11.1, 20 ),
"transitions": PoolRealArray( 1, 1, 1 ),
"update": 0,
"values": [ 1.0, 1.14, 0.9 ]
}

[sub_resource type="Animation" id=10]
loop = true
tracks/0/type = "value"
tracks/0/path = NodePath(".:pitch_scale")
tracks/0/interp = 1
tracks/0/loop_wrap = true
tracks/0/imported = false
tracks/0/enabled = true
tracks/0/keys = {
"times": PoolRealArray( 0 ),
"transitions": PoolRealArray( 1 ),
"update": 0,
"values": [ 1.0 ]
}

[node name="Game2" type="Node2D"]
position = Vector2( 189.696, -44.8985 )
script = ExtResource( 5 )

[node name="TileMap" type="TileMap" parent="." groups=[
"map",
]]
show_behind_parent = true
mode = 1
tile_set = SubResource( 5 )
cell_size = Vector2( 96, 48 )
cell_y_sort = true
show_collision = true
format = 1
tile_data = PoolIntArray( -1834975, 1, 0, -1834974, 1, 0, -1769440, 1, 0, -1769439, 0, 0, -1769438, 0, 0, -1769437, 1, 0, -1703905, 1, 0, -1703904, 0, 0, -1703903, 0, 0, -1703902, 0, 0, -1703901, 0, 0, -1703900, 1, 0, -1638370, 1, 0, -1638369, 0, 0, -1638368, 0, 0, -1638367, 0, 0, -1638366, 0, 0, -1638365, 0, 0, -1638364, 0, 0, -1638363, 1, 0, -1572835, 4, 0, -1572834, 0, 0, -1572833, 0, 0, -1572832, 0, 0, -1572831, 0, 0, -1572830, 0, 0, -1572829, 0, 0, -1572828, 0, 0, -1572827, 0, 0, -1572826, 1, 0, -1507300, 4, 0, -1507299, 0, 0, -1507298, 0, 0, -1507297, 0, 0, -1507296, 0, 0, -1507295, 0, 0, -1507294, 0, 0, -1507293, 0, 0, -1507292, 0, 0, -1507291, 0, 0, -1507290, 0, 0, -1507289, 1, 0, -1441765, 1, 0, -1441764, 0, 0, -1441763, 0, 0, -1441762, 0, 0, -1441761, 0, 0, -1441760, 0, 0, -1441759, 0, 0, -1441758, 0, 0, -1441757, 0, 0, -1441756, 0, 0, -1441755, 0, 0, -1441754, 0, 0, -1441753, 0, 0, -1441752, 1, 0, -1376230, 1, 0, -1376229, 0, 0, -1376228, 0, 0, -1376227, 0, 0, -1376226, 0, 0, -1376225, 0, 0, -1376224, 0, 0, -1376223, 0, 0, -1376222, 0, 0, -1376221, 0, 0, -1376220, 0, 0, -1376219, 0, 0, -1376218, 0, 0, -1376217, 0, 0, -1376216, 0, 0, -1376215, 1, 0, -1310695, 1, 0, -1310694, 0, 0, -1310693, 0, 0, -1310692, 0, 0, -1310691, 0, 0, -1310690, 0, 0, -1310689, 0, 0, -1310688, 0, 0, -1310687, 1, 0, -1310686, 1, 0, -1310685, 1, 0, -1310684, 1, 0, -1310683, 1, 0, -1310682, 1, 0, -1310681, 1, 0, -1310680, 1, 0, -1310679, 1, 0, -1310678, 1, 0, -1245160, 1, 0, -1245159, 0, 0, -1245158, 0, 0, -1245157, 0, 0, -1245156, 0, 0, -1245155, 0, 0, -1245154, 0, 0, -1245153, 0, 0, -1245152, 0, 0, -1245151, 1, 0, -1245150, 0, 0, -1245149, 0, 0, -1245148, 0, 0, -1245147, 0, 0, -1245146, 0, 0, -1245145, 0, 0, -1245144, 0, 0, -1245143, 0, 0, -1245142, 1, 0, -1179624, 1, 0, -1179623, 0, 0, -1179622, 0, 0, -1179621, 0, 0, -1179620, 0, 0, -1179619, 0, 0, -1179618, 0, 0, -1179617, 0, 0, -1179616, 0, 0, -1179615, 1, 0, -1179614, 0, 0, -1179613, 0, 0, -1179612, 0, 0, -1179611, 0, 0, -1179610, 0, 0, -1179609, 0, 0, -1179608, 0, 0, -1179607, 0, 0, -1179606, 1, 0, -1114088, 1, 0, -1114087, 0, 0, -1114086, 0, 0, -1114085, 0, 0, -1114084, 0, 0, -1114083, 0, 0, -1114082, 0, 0, -1114081, 0, 0, -1114080, 0, 0, -1114079, 1, 0, -1114078, 0, 0, -1114077, 0, 0, -1114076, 0, 0, -1114075, 0, 0, -1114074, 0, 0, -1114073, 0, 0, -1114072, 0, 0, -1114071, 0, 0, -1114070, 1, 0, -1048552, 1, 0, -1048551, 0, 0, -1048550, 0, 0, -1048549, 0, 0, -1048548, 0, 0, -1048547, 0, 0, -1048546, 0, 0, -1048545, 0, 0, -1048544, 0, 0, -1048543, 1, 0, -1048542, 0, 0, -1048541, 0, 0, -1048540, 0, 0, -1048539, 0, 0, -1048538, 0, 0, -1048537, 0, 0, -1048536, 0, 0, -1048535, 0, 0, -1048534, 1, 0, -983016, 1, 0, -983015, 0, 0, -983014, 0, 0, -983013, 0, 0, -983012, 0, 0, -983011, 0, 0, -983010, 0, 0, -983009, 1, 0, -983008, 1, 0, -983007, 1, 0, -983006, 1, 0, -983005, 3, 0, -983004, 1, 0, -983003, 1, 0, -983002, 1, 0, -983001, 1, 0, -983000, 1, 0, -982999, 3, 0, -982998, 1, 0, -982997, 1, 0, -982996, 1, 0, -917480, 1, 0, -917479, 0, 0, -917478, 0, 0, -917477, 0, 0, -917476, 0, 0, -917475, 0, 0, -917474, 5, 0, -917473, 0, 0, -917472, 0, 0, -917471, 0, 0, -917470, 0, 0, -917469, 0, 0, -917468, 0, 0, -917467, 0, 0, -917466, 0, 0, -917465, 0, 0, -917464, 0, 0, -917463, 0, 0, -917462, 0, 0, -917461, 0, 0, -917460, 1, 0, -851944, 1, 0, -851943, 0, 0, -851942, 0, 0, -851941, 0, 0, -851940, 0, 0, -851939, 1, 0, -851938, 0, 0, -851937, 0, 0, -851936, 0, 0, -851935, 0, 0, -851934, 0, 0, -851933, 0, 0, -851932, 0, 0, -851931, 0, 0, -851930, 0, 0, -851929, 0, 0, -851928, 0, 0, -851927, 0, 0, -851926, 0, 0, -851925, 0, 0, -851924, 1, 0, -786408, 1, 0, -786407, 0, 0, -786406, 0, 0, -786405, 0, 0, -786404, 0, 0, -786403, 1, 0, -786402, 0, 0, -786401, 0, 0, -786400, 0, 0, -786399, 0, 0, -786398, 0, 0, -786397, 0, 0, -786396, 0, 0, -786395, 0, 0, -786394, 0, 0, -786393, 0, 0, -786392, 0, 0, -786391, 0, 0, -786390, 0, 0, -786389, 0, 0, -786388, 1, 0, -720872, 1, 0, -720871, 0, 0, -720870, 0, 0, -720869, 0, 0, -720868, 0, 0, -720867, 1, 0, -720866, 0, 0, -720865, 0, 0, -720864, 0, 0, -720863, 0, 0, -720862, 0, 0, -720861, 0, 0, -720860, 0, 0, -720859, 0, 0, -720858, 0, 0, -720857, 0, 0, -720856, 0, 0, -720855, 0, 0, -720854, 0, 0, -720853, 0, 0, -720852, 1, 0, -655336, 1, 0, -655335, 0, 0, -655334, 0, 0, -655333, 0, 0, -655332, 0, 0, -655331, 1, 0, -655330, 0, 0, -655329, 0, 0, -655328, 0, 0, -655327, 0, 0, -655326, 0, 0, -655325, 0, 0, -655324, 0, 0, -655323, 0, 0, -655322, 0, 0, -655321, 0, 0, -655320, 0, 0, -655319, 0, 0, -655318, 0, 0, -655317, 0, 0, -655316, 1, 0, -589824, 536870913, 0, -589823, 536870913, 0, -589822, 536870913, 0, -589821, 536870913, 0, -589820, 536870913, 0, -589819, 536870913, 0, -589818, 536870913, 0, -589817, 536870913, 0, -589816, 536870913, 0, -589815, 536870913, 0, -589814, 536870913, 0, -589813, 536870913, 0, -589812, 536870913, 0, -589811, 3, 0, -589810, 536870913, 0, -589809, 536870913, 0, -589808, 536870913, 0, -589807, 536870913, 0, -589806, 536870913, 0, -589805, 536870913, 0, -589804, 3, 0, -589803, 536870913, 0, -589802, 536870913, 0, -589801, 536870913, 0, -589800, 536870913, 0, -589799, 0, 0, -589798, 0, 0, -589797, 0, 0, -589796, 0, 0, -589795, 1, 0, -589794, 0, 0, -589793, 0, 0, -589792, 0, 0, -589791, 0, 0, -589790, 0, 0, -589789, 0, 0, -589788, 0, 0, -589787, 0, 0, -589786, 0, 0, -589785, 0, 0, -589784, 0, 0, -589783, 0, 0, -589782, 0, 0, -589781, 0, 0, -589780, 1, 0, -524288, 536870913, 0, -524287, 536870912, 0, -524286, 536870912, 0, -524285, 536870912, 0, -524284, 536870912, 0, -524283, 536870912, 0, -524282, 536870912, 0, -524281, 536870912, 0, -524280, 536870912, 0, -524279, 536870913, 0, -524278, 536870912, 0, -524277, 536870912, 0, -524276, 536870912, 0, -524275, 536870912, 0, -524274, 536870912, 0, -524273, 536870912, 0, -524272, 536870912, 0, -524271, 536870912, 0, -524270, 536870912, 0, -524269, 536870912, 0, -524268, 536870912, 0, -524267, 536870912, 0, -524266, 536870912, 0, -524265, 536870912, 0, -524264, 536870913, 0, -524263, 1, 0, -524262, 1, 0, -524261, 1, 0, -524260, 1, 0, -524259, 1, 0, -524258, 0, 0, -524257, 0, 0, -524256, 0, 0, -524255, 0, 0, -524254, 0, 0, -524253, 0, 0, -524252, 0, 0, -524251, 0, 0, -524250, 0, 0, -524249, 0, 0, -524248, 0, 0, -524247, 0, 0, -524246, 0, 0, -524245, 0, 0, -524244, 1, 0, -458752, 536870913, 0, -458751, 536870912, 0, -458750, 536870912, 0, -458749, 536870912, 0, -458748, 536870912, 0, -458747, 536870912, 0, -458746, 536870912, 0, -458745, 536870912, 0, -458744, 536870912, 0, -458743, 536870913, 0, -458742, 536870912, 0, -458741, 536870912, 0, -458740, 536870912, 0, -458739, 536870912, 0, -458738, 536870912, 0, -458737, 536870912, 0, -458736, 536870912, 0, -458735, 536870912, 0, -458734, 536870912, 0, -458733, 536870912, 0, -458732, 536870912, 0, -458731, 536870912, 0, -458730, 536870912, 0, -458729, 536870912, 0, -458728, 536870913, 0, -458727, 0, 0, -458726, 0, 0, -458725, 0, 0, -458724, 0, 0, -458723, 1, 0, -458722, 0, 0, -458721, 0, 0, -458720, 0, 0, -458719, 0, 0, -458718, 0, 0, -458717, 0, 0, -458716, 0, 0, -458715, 0, 0, -458714, 0, 0, -458713, 0, 0, -458712, 0, 0, -458711, 0, 0, -458710, 0, 0, -458709, 0, 0, -458708, 1, 0, -393216, 536870913, 0, -393215, 536870912, 0, -393214, 536870912, 0, -393213, 536870912, 0, -393212, 536870912, 0, -393211, 536870912, 0, -393210, 536870912, 0, -393209, 536870912, 0, -393208, 536870912, 0, -393207, 536870913, 0, -393206, 536870912, 0, -393205, 536870912, 0, -393204, 536870912, 0, -393203, 536870912, 0, -393202, 536870912, 0, -393201, 536870912, 0, -393200, 536870912, 0, -393199, 536870912, 0, -393198, 536870912, 0, -393197, 536870912, 0, -393196, 536870912, 0, -393195, 536870912, 0, -393194, 536870912, 0, -393193, 536870912, 0, -393192, 536870913, 0, -393191, 0, 0, -393190, 0, 0, -393189, 0, 0, -393188, 0, 0, -393187, 1, 0, -393186, 0, 0, -393185, 0, 0, -393184, 0, 0, -393183, 0, 0, -393182, 0, 0, -393181, 0, 0, -393180, 0, 0, -393179, 0, 0, -393178, 0, 0, -393177, 0, 0, -393176, 0, 0, -393175, 0, 0, -393174, 0, 0, -393173, 0, 0, -393172, 1, 0, -327680, 536870913, 0, -327679, 536870912, 0, -327678, 536870912, 0, -327677, 536870912, 0, -327676, 536870912, 0, -327675, 536870912, 0, -327674, 536870912, 0, -327673, 536870912, 0, -327672, 536870912, 0, -327671, 536870913, 0, -327670, 536870912, 0, -327669, 536870912, 0, -327668, 536870912, 0, -327667, 536870912, 0, -327666, 536870912, 0, -327665, 536870912, 0, -327664, 536870912, 0, -327663, 536870912, 0, -327662, 536870912, 0, -327661, 536870912, 0, -327660, 536870912, 0, -327659, 536870912, 0, -327658, 536870912, 0, -327657, 536870912, 0, -327656, 536870913, 0, -327655, 0, 0, -327654, 0, 0, -327653, 0, 0, -327652, 0, 0, -327651, 1, 0, -327650, 0, 0, -327649, 0, 0, -327648, 0, 0, -327647, 0, 0, -327646, 0, 0, -327645, 0, 0, -327644, 0, 0, -327643, 0, 0, -327642, 0, 0, -327641, 0, 0, -327640, 0, 0, -327639, 0, 0, -327638, 0, 0, -327637, 0, 0, -327636, 1, 0, -262144, 536870915, 0, -262143, 536870912, 0, -262142, 536870912, 0, -262141, 536870912, 0, -262140, 536870912, 0, -262139, 536870912, 0, -262138, 536870912, 0, -262137, 536870912, 0, -262136, 536870912, 0, -262135, 536870913, 0, -262134, 536870912, 0, -262133, 536870912, 0, -262132, 536870912, 0, -262131, 536870912, 0, -262130, 536870912, 0, -262129, 536870912, 0, -262128, 536870912, 0, -262127, 536870912, 0, -262126, 536870912, 0, -262125, 536870912, 0, -262124, 536870912, 0, -262123, 536870912, 0, -262122, 536870912, 0, -262121, 0, 0, -262120, 2, 0, -262119, 0, 0, -262118, 0, 0, -262117, 0, 0, -262116, 0, 0, -262115, 1, 0, -262114, 0, 0, -262113, 0, 0, -262112, 0, 0, -262111, 0, 0, -262110, 0, 0, -262109, 0, 0, -262108, 0, 0, -262107, 0, 0, -262106, 0, 0, -262105, 0, 0, -262104, 0, 0, -262103, 0, 0, -262102, 0, 0, -262101, 0, 0, -262100, 0, 0, -262099, 1, 0, -196608, 536870913, 0, -196607, 536870912, 0, -196606, 536870912, 0, -196605, 536870912, 0, -196604, 536870912, 0, -196603, 536870912, 0, -196602, 536870912, 0, -196601, 1, 0, -196600, 1, 0, -196599, 1, 0, -196598, 2, 0, -196597, 2, 0, -196596, 1, 0, -196595, 1, 0, -196594, 1, 0, -196593, 1, 0, -196592, 536870912, 0, -196591, 536870912, 0, -196590, 536870912, 0, -196589, 536870912, 0, -196588, 536870912, 0, -196587, 536870912, 0, -196586, 536870912, 0, -196585, 536870912, 0, -196584, 2, 0, -196583, 0, 0, -196582, 0, 0, -196581, 0, 0, -196580, 0, 0, -196579, 1, 0, -196578, 1, 0, -196577, 1, 0, -196576, 1, 0, -196575, 1, 0, -196574, 1, 0, -196573, 1, 0, -196572, 1, 0, -196571, 1, 0, -196570, 1, 0, -196569, 1, 0, -196568, 1, 0, -196567, 0, 0, -196566, 0, 0, -196565, 0, 0, -196564, 0, 0, -196563, 0, 0, -196562, 1, 0, -131072, 536870913, 0, -131071, 536870912, 0, -131070, 536870912, 0, -131069, 536870912, 0, -131068, 536870912, 0, -131067, 536870912, 0, -131066, 536870912, 0, -131065, 1, 0, -131064, 536870912, 0, -131063, 0, 0, -131062, 0, 0, -131061, 0, 0, -131060, 0, 0, -131059, 0, 0, -131058, 0, 0, -131057, 1, 0, -131056, 536870912, 0, -131055, 536870912, 0, -131054, 536870912, 0, -131053, 536870912, 0, -131052, 536870912, 0, -131051, 536870912, 0, -131050, 536870912, 0, -131049, 536870912, 0, -131048, 2, 0, -131047, 0, 0, -131046, 0, 0, -131045, 0, 0, -131044, 0, 0, -131043, 1, 0, -131042, 0, 0, -131041, 0, 0, -131040, 1, 0, -131039, 0, 0, -131038, 0, 0, -131037, 0, 0, -131036, 0, 0, -131035, 0, 0, -131034, 0, 0, -131033, 0, 0, -131032, 0, 0, -131031, 1, 0, -131030, 0, 0, -131029, 0, 0, -131028, 0, 0, -131027, 0, 0, -131026, 0, 0, -131025, 1, 0, -65536, 536870913, 0, -65535, 536870912, 0, -65534, 536870912, 0, -65533, 536870912, 0, -65532, 536870912, 0, -65531, 536870912, 0, -65530, 536870912, 0, -65529, 536870913, 0, -65528, 0, 0, -65527, 0, 0, -65526, 0, 0, -65525, 0, 0, -65524, 0, 0, -65523, 0, 0, -65522, 0, 0, -65521, 1, 0, -65520, 536870912, 0, -65519, 536870912, 0, -65518, 536870912, 0, -65517, 536870912, 0, -65516, 536870912, 0, -65515, 536870912, 0, -65514, 536870912, 0, -65513, 536870912, 0, -65512, 536870913, 0, -65511, 0, 0, -65510, 0, 0, -65509, 0, 0, -65508, 0, 0, -65507, 1, 0, -65506, 0, 0, -65505, 0, 0, -65504, 0, 0, -65503, 1, 0, -65502, 0, 0, -65501, 0, 0, -65500, 0, 0, -65499, 0, 0, -65498, 0, 0, -65497, 0, 0, -65496, 0, 0, -65495, 0, 0, -65494, 1, 0, -65493, 0, 0, -65492, 0, 0, -65491, 0, 0, -65490, 0, 0, -65489, 0, 0, -65488, 1, 0, 0, 536870913, 0, 1, 536870912, 0, 2, 536870912, 0, 3, 536870912, 0, 4, 536870912, 0, 5, 536870912, 0, 6, 536870912, 0, 7, 536870915, 0, 8, 0, 0, 9, 0, 0, 10, 0, 0, 11, 0, 0, 12, 0, 0, 13, 0, 0, 14, 0, 0, 15, 1, 0, 16, 536870912, 0, 17, 536870912, 0, 18, 536870912, 0, 19, 536870912, 0, 20, 536870912, 0, 21, 536870912, 0, 22, 536870912, 0, 23, 536870912, 0, 24, 536870913, 0, 25, 0, 0, 26, 0, 0, 27, 0, 0, 28, 0, 0, 29, 1, 0, 30, 0, 0, 31, 0, 0, 32, 0, 0, 33, 0, 0, 34, 1, 0, 35, 0, 0, 36, 0, 0, 37, 0, 0, 38, 0, 0, 39, 0, 0, 40, 0, 0, 41, 0, 0, 42, 0, 0, 43, 1, 0, 44, 0, 0, 45, 0, 0, 46, 0, 0, 47, 0, 0, 48, 0, 0, 49, 1, 0, 65536, 536870913, 0, 65537, 536870912, 0, 65538, 536870912, 0, 65539, 536870912, 0, 65540, 536870912, 0, 65541, 536870912, 0, 65542, 536870912, 0, 65543, 536870913, 0, 65544, 0, 0, 65545, 0, 0, 65546, 0, 0, 65547, 0, 0, 65548, 0, 0, 65549, 0, 0, 65550, 0, 0, 65551, 1, 0, 65552, 536870912, 0, 65553, 536870912, 0, 65554, 536870912, 0, 65555, 536870912, 0, 65556, 536870912, 0, 65557, 536870912, 0, 65558, 536870912, 0, 65559, 536870912, 0, 65560, 536870913, 0, 65561, 0, 0, 65562, 0, 0, 65563, 0, 0, 65564, 0, 0, 65565, 1, 0, 65566, 0, 0, 65567, 0, 0, 65568, 0, 0, 65569, 0, 0, 65570, 0, 0, 65571, 1, 0, 65572, 0, 0, 65573, 0, 0, 65574, 0, 0, 65575, 0, 0, 65576, 0, 0, 65577, 0, 0, 65578, 0, 0, 65579, 0, 0, 65580, 1, 0, 65581, 0, 0, 65582, 0, 0, 65583, 0, 0, 65584, 0, 0, 65585, 0, 0, 65586, 1, 0, 131072, 536870913, 0, 131073, 536870912, 0, 131074, 536870912, 0, 131075, 536870912, 0, 131076, 536870912, 0, 131077, 536870912, 0, 131078, 536870912, 0, 131079, 1, 0, 131080, 0, 0, 131081, 0, 0, 131082, 0, 0, 131083, 0, 0, 131084, 0, 0, 131085, 0, 0, 131086, 0, 0, 131087, 1, 0, 131088, 536870912, 0, 131089, 536870912, 0, 131090, 536870912, 0, 131091, 536870912, 0, 131092, 536870912, 0, 131093, 536870912, 0, 131094, 536870912, 0, 131095, 536870912, 0, 131096, 536870913, 0, 131097, 0, 0, 131098, 0, 0, 131099, 0, 0, 131100, 0, 0, 131101, 1, 0, 131102, 0, 0, 131103, 0, 0, 131104, 0, 0, 131105, 0, 0, 131106, 0, 0, 131107, 0, 0, 131108, 1, 0, 131109, 0, 0, 131110, 0, 0, 131111, 0, 0, 131112, 0, 0, 131113, 0, 0, 131114, 0, 0, 131115, 0, 0, 131116, 0, 0, 131117, 6, 0, 131118, 0, 0, 131119, 0, 0, 131120, 0, 0, 131121, 0, 0, 131122, 0, 0, 131123, 1, 0, 196608, 536870913, 0, 196609, 536870913, 0, 196610, 536870913, 0, 196611, 536870913, 0, 196612, 536870913, 0, 196613, 536870913, 0, 196614, 536870913, 0, 196615, 1, 0, 196616, 0, 0, 196617, 0, 0, 196618, 0, 0, 196619, 0, 0, 196620, 0, 0, 196621, 0, 0, 196622, 0, 0, 196623, 1, 0, 196624, 536870912, 0, 196625, 536870912, 0, 196626, 536870912, 0, 196627, 536870912, 0, 196628, 536870912, 0, 196629, 536870912, 0, 196630, 536870912, 0, 196631, 536870912, 0, 196632, 536870913, 0, 196633, 0, 0, 196634, 0, 0, 196635, 0, 0, 196636, 0, 0, 196637, 0, 0, 196638, 1, 0, 196639, 0, 0, 196640, 0, 0, 196641, 0, 0, 196642, 0, 0, 196643, 0, 0, 196644, 0, 0, 196645, 1, 0, 196646, 0, 0, 196647, 0, 0, 196648, 0, 0, 196649, 0, 0, 196650, 0, 0, 196651, 0, 0, 196652, 6, 0, 196653, 0, 0, 196654, 0, 0, 196655, 0, 0, 196656, 0, 0, 196657, 0, 0, 196658, 0, 0, 196659, 0, 0, 196660, 6, 0, 262144, 536870913, 0, 262145, 536870912, 0, 262146, 536870912, 0, 262147, 536870912, 0, 262148, 536870912, 0, 262149, 536870912, 0, 262150, 536870912, 0, 262151, 1, 0, 262152, 0, 0, 262153, 0, 0, 262154, 0, 0, 262155, 0, 0, 262156, 0, 0, 262157, 0, 0, 262158, 0, 0, 262159, 1, 0, 262160, 536870913, 0, 262161, 536870913, 0, 262162, 536870913, 0, 262163, 536870913, 0, 262164, 536870913, 0, 262165, 536870913, 0, 262166, 536870913, 0, 262167, 536870913, 0, 262168, 536870913, 0, 262169, 0, 0, 262170, 0, 0, 262171, 0, 0, 262172, 0, 0, 262173, 0, 0, 262174, 0, 0, 262175, 1, 0, 262176, 0, 0, 262177, 0, 0, 262178, 0, 0, 262179, 0, 0, 262180, 0, 0, 262181, 0, 0, 262182, 1, 0, 262183, 0, 0, 262184, 0, 0, 262185, 0, 0, 262186, 0, 0, 262187, 6, 0, 262188, 0, 0, 262189, 0, 0, 262190, 0, 0, 262191, 0, 0, 262192, 0, 0, 262193, 0, 0, 262194, 0, 0, 262195, 6, 0, 327680, 536870913, 0, 327681, 536870912, 0, 327682, 536870912, 0, 327683, 536870912, 0, 327684, 536870912, 0, 327685, 536870912, 0, 327686, 536870912, 0, 327687, 536870915, 0, 327688, 0, 0, 327689, 0, 0, 327690, 0, 0, 327691, 0, 0, 327692, 0, 0, 327693, 0, 0, 327694, 0, 0, 327695, 1, 0, 327705, 1, 0, 327706, 0, 0, 327707, 0, 0, 327708, 0, 0, 327709, 0, 0, 327710, 0, 0, 327711, 0, 0, 327712, 1, 0, 327713, 0, 0, 327714, 0, 0, 327715, 0, 0, 327716, 0, 0, 327717, 0, 0, 327718, 0, 0, 327719, 1, 0, 327720, 0, 0, 327721, 0, 0, 327722, 4, 0, 327723, 0, 0, 327724, 0, 0, 327725, 0, 0, 327726, 0, 0, 327727, 0, 0, 327728, 0, 0, 327729, 0, 0, 327730, 6, 0, 393216, 536870913, 0, 393217, 536870912, 0, 393218, 536870912, 0, 393219, 536870912, 0, 393220, 536870912, 0, 393221, 536870912, 0, 393222, 536870912, 0, 393223, 1, 0, 393224, 0, 0, 393225, 0, 0, 393226, 0, 0, 393227, 0, 0, 393228, 0, 0, 393229, 0, 0, 393230, 0, 0, 393231, 1, 0, 393242, 1, 0, 393243, 0, 0, 393244, 0, 0, 393245, 0, 0, 393246, 0, 0, 393247, 0, 0, 393248, 0, 0, 393249, 1, 0, 393250, 0, 0, 393251, 0, 0, 393252, 0, 0, 393253, 0, 0, 393254, 0, 0, 393255, 0, 0, 393256, 1, 0, 393257, 6, 0, 393258, 0, 0, 393259, 0, 0, 393260, 0, 0, 393261, 0, 0, 393262, 0, 0, 393263, 0, 0, 393264, 0, 0, 393265, 6, 0, 458752, 536870913, 0, 458753, 536870912, 0, 458754, 536870912, 0, 458755, 536870912, 0, 458756, 536870912, 0, 458757, 536870912, 0, 458758, 536870912, 0, 458759, 1, 0, 458760, 0, 0, 458761, 0, 0, 458762, 0, 0, 458763, 0, 0, 458764, 0, 0, 458765, 0, 0, 458766, 0, 0, 458767, 1, 0, 458779, 1, 0, 458780, 0, 0, 458781, 0, 0, 458782, 0, 0, 458783, 0, 0, 458784, 0, 0, 458785, 0, 0, 458786, 1, 0, 458787, 0, 0, 458788, 0, 0, 458789, 0, 0, 458790, 0, 0, 458791, 0, 0, 458792, 6, 0, 458793, 0, 0, 458794, 0, 0, 458795, 0, 0, 458796, 0, 0, 458797, 0, 0, 458798, 0, 0, 458799, 0, 0, 458800, 6, 0, 524288, 536870913, 0, 524289, 536870912, 0, 524290, 536870912, 0, 524291, 536870912, 0, 524292, 536870912, 0, 524293, 536870912, 0, 524294, 536870912, 0, 524295, 1, 0, 524296, 1, 0, 524297, 1, 0, 524298, 1, 0, 524299, 1, 0, 524300, 1, 0, 524301, 1, 0, 524302, 1, 0, 524303, 1, 0, 524316, 1, 0, 524317, 0, 0, 524318, 0, 0, 524319, 0, 0, 524320, 0, 0, 524321, 0, 0, 524322, 0, 0, 524323, 1, 0, 524324, 0, 0, 524325, 0, 0, 524326, 0, 0, 524327, 4, 0, 524328, 0, 0, 524329, 0, 0, 524330, 0, 0, 524331, 0, 0, 524332, 0, 0, 524333, 0, 0, 524334, 0, 0, 524335, 6, 0, 589824, 536870913, 0, 589825, 536870912, 0, 589826, 536870912, 0, 589827, 536870912, 0, 589828, 536870912, 0, 589829, 536870912, 0, 589830, 536870912, 0, 589831, 536870912, 0, 589832, 536870912, 0, 589833, 1, 0, 589834, 1, 0, 589835, 1, 0, 589836, 1, 0, 589853, 1, 0, 589854, 0, 0, 589855, 0, 0, 589856, 0, 0, 589857, 0, 0, 589858, 0, 0, 589859, 0, 0, 589860, 1, 0, 589861, 0, 0, 589862, 6, 0, 589863, 0, 0, 589864, 0, 0, 589865, 0, 0, 589866, 0, 0, 589867, 0, 0, 589868, 0, 0, 589869, 0, 0, 589870, 6, 0, 655360, 536870913, 0, 655361, 536870912, 0, 655362, 536870912, 0, 655363, 536870912, 0, 655364, 536870912, 0, 655365, 536870912, 0, 655366, 536870912, 0, 655367, 536870912, 0, 655368, 536870912, 0, 655369, 1, 0, 655370, 1, 0, 655371, 1, 0, 655372, 1, 0, 655390, 1, 0, 655391, 0, 0, 655392, 0, 0, 655393, 0, 0, 655394, 0, 0, 655395, 0, 0, 655396, 0, 0, 655397, 6, 0, 655398, 0, 0, 655399, 0, 0, 655400, 0, 0, 655401, 0, 0, 655402, 0, 0, 655403, 0, 0, 655404, 0, 0, 655405, 6, 0, 720896, 536870913, 0, 720897, 536870912, 0, 720898, 536870912, 0, 720899, 536870912, 0, 720900, 536870912, 0, 720901, 536870912, 0, 720902, 536870912, 0, 720903, 536870912, 0, 720904, 536870912, 0, 720905, 536870913, 0, 720927, 1, 0, 720928, 0, 0, 720929, 0, 0, 720930, 0, 0, 720931, 0, 0, 720932, 0, 0, 720933, 0, 0, 720934, 0, 0, 720935, 0, 0, 720936, 0, 0, 720937, 0, 0, 720938, 0, 0, 720939, 0, 0, 720940, 6, 0, 786432, 536870913, 0, 786433, 536870912, 0, 786434, 536870912, 0, 786435, 536870912, 0, 786436, 536870912, 0, 786437, 536870912, 0, 786438, 536870912, 0, 786439, 536870912, 0, 786440, 536870912, 0, 786441, 536870913, 0, 786464, 1, 0, 786465, 0, 0, 786466, 0, 0, 786467, 0, 0, 786468, 0, 0, 786469, 0, 0, 786470, 0, 0, 786471, 0, 0, 786472, 0, 0, 786473, 0, 0, 786474, 0, 0, 786475, 6, 0, 851968, 536870913, 0, 851969, 536870912, 0, 851970, 536870912, 0, 851971, 536870912, 0, 851972, 536870912, 0, 851973, 536870912, 0, 851974, 536870912, 0, 851975, 536870912, 0, 851976, 536870912, 0, 851977, 536870913, 0, 852001, 1, 0, 852002, 0, 0, 852003, 0, 0, 852004, 0, 0, 852005, 0, 0, 852006, 0, 0, 852007, 0, 0, 852008, 0, 0, 852009, 0, 0, 852010, 6, 0, 917504, 536870913, 0, 917505, 536870912, 0, 917506, 536870912, 0, 917507, 536870912, 0, 917508, 536870912, 0, 917509, 536870912, 0, 917510, 536870912, 0, 917511, 536870912, 0, 917512, 536870912, 0, 917513, 536870913, 0, 917538, 1, 0, 917539, 0, 0, 917540, 0, 0, 917541, 0, 0, 917542, 0, 0, 917543, 0, 0, 917544, 0, 0, 917545, 6, 0, 983040, 536870913, 0, 983041, 536870912, 0, 983042, 536870912, 0, 983043, 536870912, 0, 983044, 536870912, 0, 983045, 536870912, 0, 983046, 536870912, 0, 983047, 536870912, 0, 983048, 536870912, 0, 983049, 536870913, 0, 983075, 1, 0, 983076, 0, 0, 983077, 0, 0, 983078, 0, 0, 983079, 0, 0, 983080, 6, 0, 1048576, 536870913, 0, 1048577, 536870912, 0, 1048578, 536870912, 0, 1048579, 536870912, 0, 1048580, 536870912, 0, 1048581, 536870912, 0, 1048582, 536870912, 0, 1048583, 536870912, 0, 1048584, 536870912, 0, 1048585, 536870913, 0, 1048612, 1, 0, 1048613, 0, 0, 1048614, 0, 0, 1048615, 6, 0, 1114112, 536870913, 0, 1114113, 536870913, 0, 1114114, 536870913, 0, 1114115, 536870913, 0, 1114116, 536870913, 0, 1114117, 536870913, 0, 1114118, 536870913, 0, 1114119, 536870913, 0, 1114120, 536870913, 0, 1114121, 536870913, 0, 1114149, 1, 0, 1114150, 6, 0 )

[node name="Player" parent="TileMap" instance=ExtResource( 1 )]
position = Vector2( 316.318, 372.13 )

[node name="RunnerMonster5" parent="TileMap" instance=ExtResource( 2 )]
position = Vector2( 2222.26, 870.22 )

[node name="RunnerMonster6" parent="TileMap" instance=ExtResource( 2 )]
position = Vector2( 2479.69, 643.025 )

[node name="StumpMonster" parent="TileMap" instance=ExtResource( 6 )]
position = Vector2( 2169.18, 521.309 )
activation_distance = 400

[node name="ElevatorDoor" parent="TileMap" instance=ExtResource( 10 )]
position = Vector2( 5233.39, 259.023 )

[node name="exit-indicator" type="Sprite" parent="TileMap"]
position = Vector2( 5187.69, 156.369 )
rotation = -0.0872665
scale = Vector2( 3, 3 )
z_index = 1
texture = ExtResource( 9 )

[node name="ExitLevelArea" parent="TileMap" instance=ExtResource( 11 )]
position = Vector2( 5214.14, 201.607 )
rotation = 0.598872
z_index = 1
script = SubResource( 6 )
next_level = ExtResource( 13 )

[node name="slumpbody" type="Sprite" parent="TileMap"]
position = Vector2( 1169.58, 198.296 )
scale = Vector2( 2.5, 2.5 )
texture = ExtResource( 15 )
flip_h = true

[node name="slumpbody6" type="Sprite" parent="TileMap"]
position = Vector2( 408.006, -15.3919 )
scale = Vector2( 2.5, 2.5 )
texture = ExtResource( 15 )
offset = Vector2( 76.079, -29.1776 )
flip_h = true

[node name="slumpbody2" type="Sprite" parent="TileMap"]
position = Vector2( 1312.28, 269.054 )
scale = Vector2( 2.5, 2.5 )
texture = ExtResource( 15 )
flip_h = true

[node name="slumpbody7" type="Sprite" parent="TileMap"]
position = Vector2( 1739.4, 769.243 )
scale = Vector2( 2.5, 2.5 )
texture = ExtResource( 15 )
flip_h = true

[node name="slumpbody3" type="Sprite" parent="TileMap"]
position = Vector2( 895.465, 317.217 )
scale = Vector2( 2.5, 2.5 )
texture = ExtResource( 15 )

[node name="slumpbody4" type="Sprite" parent="TileMap"]
position = Vector2( 307.295, -112.686 )
scale = Vector2( 2.5, 2.5 )
texture = ExtResource( 15 )

[node name="slumpbody5" type="Sprite" parent="TileMap"]
position = Vector2( 273.621, -89.1144 )
scale = Vector2( 2.5, 2.5 )
texture = ExtResource( 15 )

[node name="floorbody2" type="Sprite" parent="TileMap"]
position = Vector2( 1012.29, 426.941 )
texture = ExtResource( 16 )

[node name="floorbody3" type="Sprite" parent="TileMap"]
position = Vector2( 1155.59, 398.994 )
texture = ExtResource( 16 )

[node name="floorbody11" type="Sprite" parent="TileMap"]
position = Vector2( 1534.81, 775.299 )
texture = ExtResource( 16 )

[node name="floorbody4" type="Sprite" parent="TileMap"]
position = Vector2( 1099.69, 327.047 )
texture = ExtResource( 16 )

[node name="floorbody5" type="Sprite" parent="TileMap"]
position = Vector2( 1008.72, 275.911 )
texture = ExtResource( 16 )

[node name="floorbody6" type="Sprite" parent="TileMap"]
position = Vector2( 1003.37, 383.535 )
texture = ExtResource( 16 )

[node name="floorbody7" type="Sprite" parent="TileMap"]
position = Vector2( 1197.8, 329.426 )
texture = ExtResource( 16 )

[node name="floorbody8" type="Sprite" parent="TileMap"]
position = Vector2( -297.507, 294.965 )
texture = ExtResource( 16 )

[node name="floorbody9" type="Sprite" parent="TileMap"]
position = Vector2( -332.88, 383.064 )
texture = ExtResource( 16 )

[node name="floorbody10" type="Sprite" parent="TileMap"]
position = Vector2( -178.039, 397.747 )
texture = ExtResource( 16 )

[node name="blood-decor10" type="Sprite" parent="TileMap"]
position = Vector2( 449.145, -114.453 )
scale = Vector2( 2, 2 )
texture = ExtResource( 17 )

[node name="blood-decor11" type="Sprite" parent="TileMap"]
position = Vector2( 423.145, -111.953 )
scale = Vector2( 2, 2 )
texture = ExtResource( 17 )

[node name="desk" type="Sprite" parent="TileMap"]
position = Vector2( 1531.33, 800.331 )
texture = ExtResource( 19 )
centered = false
offset = Vector2( -96, -64 )

[node name="StaticBody2D2" type="StaticBody2D" parent="TileMap/desk"]
position = Vector2( -58.2518, -6.72516 )

[node name="CollisionShape2D" type="CollisionShape2D" parent="TileMap/desk/StaticBody2D2"]
position = Vector2( 10.7094, -8.18951 )
shape = SubResource( 7 )

[node name="painting" type="Sprite" parent="TileMap"]
position = Vector2( 1433, 724.479 )
texture = ExtResource( 18 )
centered = false
offset = Vector2( -32, -64 )

[node name="painting2" type="Sprite" parent="TileMap"]
position = Vector2( 2733.86, 431.342 )
texture = ExtResource( 18 )
centered = false
offset = Vector2( -32, -64 )
flip_h = true

[node name="table" type="Sprite" parent="TileMap"]
position = Vector2( 1912.1, 622.386 )
texture = ExtResource( 20 )
centered = false
offset = Vector2( -96, -68 )

[node name="table2" type="Sprite" parent="TileMap"]
position = Vector2( 2018.48, 577.436 )
texture = ExtResource( 20 )
centered = false
offset = Vector2( -96, -68 )

[node name="table3" type="Sprite" parent="TileMap"]
position = Vector2( 2067.92, 649.355 )
texture = ExtResource( 20 )
centered = false
offset = Vector2( -96, -68 )

[node name="table4" type="Sprite" parent="TileMap"]
position = Vector2( 2166.06, 593.918 )
texture = ExtResource( 20 )
centered = false
offset = Vector2( -96, -68 )

[node name="table5" type="Sprite" parent="TileMap"]
position = Vector2( 1948.06, 701.796 )
texture = ExtResource( 20 )
centered = false
offset = Vector2( -96, -68 )

[node name="stool" type="Sprite" parent="TileMap"]
position = Vector2( 2101.59, 722.335 )
texture = ExtResource( 21 )

[node name="stool2" type="Sprite" parent="TileMap"]
position = Vector2( 2145.56, 601.556 )
texture = ExtResource( 21 )

[node name="stool3" type="Sprite" parent="TileMap"]
position = Vector2( 2002, 584.605 )
texture = ExtResource( 21 )

[node name="stool4" type="Sprite" parent="TileMap"]
position = Vector2( 1905.59, 637.578 )
texture = ExtResource( 21 )

[node name="stool5" type="Sprite" parent="TileMap"]
position = Vector2( 1942.67, 714.389 )
texture = ExtResource( 21 )

[node name="stool6" type="Sprite" parent="TileMap"]
position = Vector2( 1819.69, 576.043 )
texture = ExtResource( 21 )
centered = false

[node name="stool7" type="Sprite" parent="TileMap"]
position = Vector2( 1918.39, 532.339 )
texture = ExtResource( 21 )
centered = false

[node name="stool8" type="Sprite" parent="TileMap"]
position = Vector2( 2083.09, 567.718 )
texture = ExtResource( 21 )

[node name="stool9" type="Sprite" parent="TileMap"]
position = Vector2( 1978.44, 617.367 )
texture = ExtResource( 21 )

[node name="stool10" type="Sprite" parent="TileMap"]
position = Vector2( 1866.06, 676.828 )
texture = ExtResource( 21 )

[node name="stool11" type="Sprite" parent="TileMap"]
position = Vector2( 2030.17, 691.098 )
texture = ExtResource( 21 )

[node name="table6" type="Sprite" parent="TileMap"]
position = Vector2( 2115.12, 722.023 )
texture = ExtResource( 20 )
centered = false
offset = Vector2( -96, -68 )

[node name="desk2" type="Sprite" parent="TileMap"]
position = Vector2( 1846.33, 869.831 )
texture = ExtResource( 19 )
centered = false
offset = Vector2( -96, -64 )
flip_h = true

[node name="StaticBody2D" type="StaticBody2D" parent="TileMap/desk2"]
position = Vector2( -59.5314, -3.46472 )

[node name="CollisionShape2D" type="CollisionShape2D" parent="TileMap/desk2/StaticBody2D"]
position = Vector2( 10.7094, -8.18951 )
shape = SubResource( 7 )

[node name="desk3" type="Sprite" parent="TileMap"]
position = Vector2( 2622.64, 432.266 )
texture = ExtResource( 19 )
centered = false
offset = Vector2( -96, -64 )
flip_h = true

[node name="StaticBody2D" type="StaticBody2D" parent="TileMap/desk3"]
position = Vector2( -59.5314, -3.46472 )

[node name="CollisionShape2D" type="CollisionShape2D" parent="TileMap/desk3/StaticBody2D"]
position = Vector2( 10.7094, -8.18951 )
shape = SubResource( 7 )

[node name="InsanityTileMap" type="TileMap" parent="."]
show_behind_parent = true
mode = 1
tile_set = SubResource( 5 )
cell_size = Vector2( 96, 48 )
cell_y_sort = true
show_collision = true
collision_layer = 0
collision_mask = 0
format = 1
tile_data = PoolIntArray( -3407865, 1, 0, -3407815, 1, 0, -3407814, 1, 0, -3407813, 1, 0, -3407812, 1, 0, -3342330, 1, 0, -3342329, 0, 0, -3342328, 1, 0, -3342322, 1, 0, -3342321, 1, 0, -3342320, 1, 0, -3342319, 1, 0, -3342318, 1, 0, -3342317, 1, 0, -3342316, 1, 0, -3342315, 1, 0, -3342314, 1, 0, -3342313, 1, 0, -3342312, 1, 0, -3342311, 1, 0, -3342310, 1, 0, -3342309, 1, 0, -3342308, 1, 0, -3342307, 1, 0, -3342279, 1, 0, -3342278, 2, 0, -3342277, 2, 0, -3342276, 1, 0, -3276795, 1, 0, -3276794, 0, 0, -3276793, 0, 0, -3276792, 0, 0, -3276791, 1, 0, -3276787, 1, 0, -3276786, 0, 0, -3276785, 0, 0, -3276784, 0, 0, -3276783, 0, 0, -3276782, 0, 0, -3276781, 0, 0, -3276780, 0, 0, -3276779, 0, 0, -3276778, 0, 0, -3276777, 0, 0, -3276776, 0, 0, -3276775, 0, 0, -3276774, 0, 0, -3276773, 0, 0, -3276772, 0, 0, -3276771, 0, 0, -3276770, 1, 0, -3276745, 6, 0, -3276744, 1, 0, -3276743, 1, 0, -3276742, 2, 0, -3276741, 2, 0, -3276740, 1, 0, -3276739, 1, 0, -3276738, 1, 0, -3211260, 1, 0, -3211259, 0, 0, -3211258, 0, 0, -3211257, 0, 0, -3211256, 0, 0, -3211255, 0, 0, -3211254, 1, 0, -3211252, 1, 0, -3211251, 0, 0, -3211250, 0, 0, -3211249, 0, 0, -3211248, 0, 0, -3211247, 0, 0, -3211246, 0, 0, -3211245, 0, 0, -3211244, 0, 0, -3211243, 0, 0, -3211242, 0, 0, -3211241, 0, 0, -3211240, 0, 0, -3211239, 0, 0, -3211238, 0, 0, -3211237, 0, 0, -3211236, 0, 0, -3211235, 0, 0, -3211234, 0, 0, -3211233, 1, 0, -3211210, 6, 0, -3211209, 0, 0, -3211208, 0, 0, -3211207, 0, 0, -3211206, 0, 0, -3211205, 0, 0, -3211204, 0, 0, -3211203, 0, 0, -3211202, 0, 0, -3211201, 1, 0, -3145723, 1, 0, -3145722, 0, 0, -3145721, 0, 0, -3145720, 0, 0, -3145719, 0, 0, -3145718, 0, 0, -3145717, 1, 0, -3145716, 0, 0, -3145715, 0, 0, -3145714, 0, 0, -3145713, 0, 0, -3145712, 0, 0, -3145711, 0, 0, -3145710, 0, 0, -3145709, 0, 0, -3145708, 0, 0, -3145707, 0, 0, -3145706, 0, 0, -3145705, 0, 0, -3145704, 0, 0, -3145703, 0, 0, -3145702, 0, 0, -3145701, 0, 0, -3145700, 0, 0, -3145699, 0, 0, -3145698, 0, 0, -3145697, 0, 0, -3145696, 1, 0, -3145675, 6, 0, -3145674, 0, 0, -3145673, 0, 0, -3145672, 0, 0, -3145671, 0, 0, -3145670, 0, 0, -3145669, 0, 0, -3145668, 0, 0, -3145667, 0, 0, -3145666, 0, 0, -3145665, 1, 0, -3080186, 1, 0, -3080185, 0, 0, -3080184, 0, 0, -3080183, 0, 0, -3080182, 0, 0, -3080181, 0, 0, -3080180, 0, 0, -3080179, 0, 0, -3080178, 0, 0, -3080177, 0, 0, -3080176, 0, 0, -3080175, 0, 0, -3080174, 0, 0, -3080173, 0, 0, -3080172, 0, 0, -3080171, 0, 0, -3080170, 0, 0, -3080169, 0, 0, -3080168, 0, 0, -3080167, 0, 0, -3080166, 0, 0, -3080165, 0, 0, -3080164, 0, 0, -3080163, 0, 0, -3080162, 0, 0, -3080161, 1, 0, -3080160, 0, 0, -3080159, 1, 0, -3080140, 6, 0, -3080139, 0, 0, -3080138, 0, 0, -3080137, 0, 0, -3080136, 0, 0, -3080135, 0, 0, -3080134, 0, 0, -3080133, 0, 0, -3080132, 0, 0, -3080131, 0, 0, -3080130, 0, 0, -3080129, 1, 0, -3014649, 1, 0, -3014648, 0, 0, -3014647, 0, 0, -3014646, 0, 0, -3014645, 0, 0, -3014644, 0, 0, -3014643, 0, 0, -3014642, 0, 0, -3014641, 0, 0, -3014640, 0, 0, -3014639, 0, 0, -3014638, 0, 0, -3014637, 0, 0, -3014636, 0, 0, -3014635, 0, 0, -3014634, 0, 0, -3014633, 0, 0, -3014632, 0, 0, -3014631, 0, 0, -3014630, 0, 0, -3014629, 0, 0, -3014628, 0, 0, -3014627, 0, 0, -3014626, 0, 0, -3014625, 1, 0, -3014624, 0, 0, -3014623, 0, 0, -3014622, 1, 0, -3014605, 6, 0, -3014604, 0, 0, -3014603, 0, 0, -3014602, 0, 0, -3014601, 0, 0, -3014600, 0, 0, -3014599, 0, 0, -3014598, 0, 0, -3014597, 0, 0, -3014596, 0, 0, -3014595, 0, 0, -3014594, 0, 0, -3014593, 6, 0, -2949112, 1, 0, -2949111, 0, 0, -2949110, 0, 0, -2949109, 0, 0, -2949108, 0, 0, -2949107, 0, 0, -2949106, 0, 0, -2949105, 0, 0, -2949104, 0, 0, -2949103, 0, 0, -2949102, 0, 0, -2949101, 0, 0, -2949100, 0, 0, -2949099, 0, 0, -2949098, 0, 0, -2949097, 0, 0, -2949096, 0, 0, -2949095, 0, 0, -2949094, 0, 0, -2949093, 0, 0, -2949092, 0, 0, -2949091, 0, 0, -2949090, 0, 0, -2949089, 1, 0, -2949088, 0, 0, -2949087, 0, 0, -2949086, 0, 0, -2949085, 1, 0, -2949070, 6, 0, -2949069, 0, 0, -2949068, 0, 0, -2949067, 0, 0, -2949066, 0, 0, -2949065, 0, 0, -2949064, 0, 0, -2949063, 0, 0, -2949062, 0, 0, -2949061, 0, 0, -2949060, 0, 0, -2949059, 0, 0, -2949058, 6, 0, -2883577, 1, 0, -2883576, 0, 0, -2883575, 0, 0, -2883574, 0, 0, -2883573, 0, 0, -2883572, 0, 0, -2883571, 0, 0, -2883570, 0, 0, -2883569, 0, 0, -2883568, 0, 0, -2883567, 0, 0, -2883566, 0, 0, -2883565, 0, 0, -2883564, 0, 0, -2883563, 0, 0, -2883562, 0, 0, -2883561, 0, 0, -2883560, 0, 0, -2883559, 0, 0, -2883558, 0, 0, -2883557, 0, 0, -2883556, 0, 0, -2883555, 0, 0, -2883554, 0, 0, -2883553, 1, 0, -2883552, 0, 0, -2883551, 0, 0, -2883550, 0, 0, -2883549, 0, 0, -2883548, 1, 0, -2883535, 6, 0, -2883534, 0, 0, -2883533, 0, 0, -2883532, 0, 0, -2883531, 0, 0, -2883530, 0, 0, -2883529, 0, 0, -2883528, 0, 0, -2883527, 0, 0, -2883526, 0, 0, -2883525, 0, 0, -2883524, 0, 0, -2883523, 6, 0, -2818042, 1, 0, -2818041, 0, 0, -2818040, 0, 0, -2818039, 0, 0, -2818038, 0, 0, -2818037, 0, 0, -2818036, 0, 0, -2818035, 0, 0, -2818034, 0, 0, -2818033, 0, 0, -2818032, 0, 0, -2818031, 1, 0, -2818030, 1, 0, -2818029, 1, 0, -2818028, 1, 0, -2818027, 1, 0, -2818026, 1, 0, -2818025, 1, 0, -2818024, 1, 0, -2818023, 1, 0, -2818022, 1, 0, -2818021, 0, 0, -2818020, 0, 0, -2818019, 0, 0, -2818018, 0, 0, -2818017, 1, 0, -2818016, 0, 0, -2818015, 0, 0, -2818014, 0, 0, -2818013, 0, 0, -2818012, 0, 0, -2818011, 1, 0, -2818000, 6, 0, -2817999, 0, 0, -2817998, 0, 0, -2817997, 0, 0, -2817996, 0, 0, -2817995, 0, 0, -2817994, 0, 0, -2817993, 0, 0, -2817992, 0, 0, -2817991, 0, 0, -2817990, 0, 0, -2817989, 0, 0, -2817988, 6, 0, -2752507, 1, 0, -2752506, 0, 0, -2752505, 0, 0, -2752504, 0, 0, -2752503, 0, 0, -2752502, 0, 0, -2752501, 0, 0, -2752500, 0, 0, -2752499, 0, 0, -2752498, 0, 0, -2752497, 0, 0, -2752496, 0, 0, -2752495, 1, 0, -2752494, 0, 0, -2752493, 0, 0, -2752492, 0, 0, -2752491, 0, 0, -2752490, 0, 0, -2752489, 0, 0, -2752488, 0, 0, -2752487, 0, 0, -2752486, 0, 0, -2752485, 0, 0, -2752484, 0, 0, -2752483, 0, 0, -2752482, 0, 0, -2752481, 1, 0, -2752480, 0, 0, -2752479, 0, 0, -2752478, 0, 0, -2752477, 0, 0, -2752476, 0, 0, -2752475, 0, 0, -2752474, 1, 0, -2752465, 6, 0, -2752464, 0, 0, -2752463, 0, 0, -2752462, 0, 0, -2752461, 0, 0, -2752460, 0, 0, -2752459, 0, 0, -2752458, 0, 0, -2752457, 0, 0, -2752456, 0, 0, -2752455, 0, 0, -2752454, 0, 0, -2752453, 6, 0, -2686972, 1, 0, -2686971, 0, 0, -2686970, 0, 0, -2686969, 0, 0, -2686968, 0, 0, -2686967, 0, 0, -2686966, 0, 0, -2686965, 0, 0, -2686964, 0, 0, -2686963, 0, 0, -2686962, 0, 0, -2686961, 0, 0, -2686960, 0, 0, -2686959, 0, 0, -2686958, 1, 0, -2686957, 0, 0, -2686956, 0, 0, -2686955, 0, 0, -2686954, 0, 0, -2686953, 0, 0, -2686952, 0, 0, -2686951, 0, 0, -2686950, 0, 0, -2686949, 0, 0, -2686948, 0, 0, -2686947, 0, 0, -2686946, 0, 0, -2686945, 1, 0, -2686944, 0, 0, -2686943, 0, 0, -2686942, 0, 0, -2686941, 0, 0, -2686940, 0, 0, -2686939, 0, 0, -2686938, 0, 0, -2686937, 1, 0, -2686930, 6, 0, -2686929, 0, 0, -2686928, 0, 0, -2686927, 0, 0, -2686926, 0, 0, -2686925, 0, 0, -2686924, 0, 0, -2686923, 0, 0, -2686922, 0, 0, -2686921, 0, 0, -2686920, 0, 0, -2686919, 0, 0, -2686918, 6, 0, -2621437, 1, 0, -2621436, 0, 0, -2621435, 0, 0, -2621434, 0, 0, -2621433, 0, 0, -2621432, 0, 0, -2621431, 0, 0, -2621430, 0, 0, -2621429, 0, 0, -2621428, 0, 0, -2621427, 0, 0, -2621426, 0, 0, -2621425, 0, 0, -2621424, 0, 0, -2621423, 0, 0, -2621422, 0, 0, -2621421, 1, 0, -2621420, 0, 0, -2621419, 0, 0, -2621418, 0, 0, -2621417, 0, 0, -2621416, 0, 0, -2621415, 0, 0, -2621414, 0, 0, -2621413, 0, 0, -2621412, 0, 0, -2621411, 0, 0, -2621410, 0, 0, -2621409, 1, 0, -2621408, 0, 0, -2621407, 0, 0, -2621406, 0, 0, -2621405, 0, 0, -2621404, 0, 0, -2621403, 0, 0, -2621402, 0, 0, -2621401, 0, 0, -2621400, 1, 0, -2621399, 1, 0, -2621398, 1, 0, -2621397, 1, 0, -2621396, 1, 0, -2621395, 6, 0, -2621394, 0, 0, -2621393, 0, 0, -2621392, 0, 0, -2621391, 0, 0, -2621390, 0, 0, -2621389, 0, 0, -2621388, 0, 0, -2621387, 0, 0, -2621386, 0, 0, -2621385, 0, 0, -2621384, 0, 0, -2621383, 6, 0, -2555900, 1, 0, -2555899, 0, 0, -2555898, 0, 0, -2555897, 0, 0, -2555896, 0, 0, -2555895, 0, 0, -2555894, 0, 0, -2555893, 0, 0, -2555892, 0, 0, -2555891, 0, 0, -2555890, 0, 0, -2555889, 0, 0, -2555888, 0, 0, -2555887, 0, 0, -2555886, 0, 0, -2555885, 0, 0, -2555884, 1, 0, -2555883, 0, 0, -2555882, 0, 0, -2555881, 0, 0, -2555880, 0, 0, -2555879, 0, 0, -2555878, 0, 0, -2555877, 0, 0, -2555876, 0, 0, -2555875, 0, 0, -2555874, 0, 0, -2555873, 1, 0, -2555872, 0, 0, -2555871, 0, 0, -2555870, 0, 0, -2555869, 0, 0, -2555868, 0, 0, -2555867, 0, 0, -2555866, 0, 0, -2555865, 0, 0, -2555864, 0, 0, -2555863, 0, 0, -2555862, 0, 0, -2555861, 0, 0, -2555860, 0, 0, -2555859, 0, 0, -2555858, 0, 0, -2555857, 0, 0, -2555856, 0, 0, -2555855, 0, 0, -2555854, 0, 0, -2555853, 0, 0, -2555852, 0, 0, -2555851, 0, 0, -2555850, 0, 0, -2555849, 0, 0, -2555848, 6, 0, -2490363, 1, 0, -2490362, 0, 0, -2490361, 0, 0, -2490360, 0, 0, -2490359, 0, 0, -2490358, 0, 0, -2490357, 0, 0, -2490356, 0, 0, -2490355, 0, 0, -2490354, 0, 0, -2490353, 0, 0, -2490352, 0, 0, -2490351, 0, 0, -2490350, 0, 0, -2490349, 0, 0, -2490348, 0, 0, -2490347, 1, 0, -2490346, 0, 0, -2490345, 0, 0, -2490344, 0, 0, -2490343, 0, 0, -2490342, 0, 0, -2490341, 0, 0, -2490340, 0, 0, -2490339, 0, 0, -2490338, 0, 0, -2490337, 1, 0, -2490336, 0, 0, -2490335, 0, 0, -2490334, 0, 0, -2490333, 0, 0, -2490332, 0, 0, -2490331, 0, 0, -2490330, 0, 0, -2490329, 0, 0, -2490328, 0, 0, -2490327, 0, 0, -2490326, 0, 0, -2490325, 0, 0, -2490324, 0, 0, -2490323, 0, 0, -2490322, 0, 0, -2490321, 0, 0, -2490320, 0, 0, -2490319, 0, 0, -2490318, 0, 0, -2490317, 0, 0, -2490316, 0, 0, -2490315, 0, 0, -2490314, 0, 0, -2490313, 6, 0, -2424826, 1, 0, -2424825, 0, 0, -2424824, 0, 0, -2424823, 0, 0, -2424822, 0, 0, -2424821, 0, 0, -2424820, 0, 0, -2424819, 0, 0, -2424818, 0, 0, -2424817, 0, 0, -2424816, 0, 0, -2424815, 0, 0, -2424814, 0, 0, -2424813, 0, 0, -2424812, 0, 0, -2424811, 0, 0, -2424810, 1, 0, -2424809, 0, 0, -2424808, 0, 0, -2424807, 0, 0, -2424806, 0, 0, -2424805, 0, 0, -2424804, 0, 0, -2424803, 0, 0, -2424802, 0, 0, -2424801, 1, 0, -2424800, 0, 0, -2424799, 0, 0, -2424798, 0, 0, -2424797, 0, 0, -2424796, 0, 0, -2424795, 0, 0, -2424794, 0, 0, -2424793, 0, 0, -2424792, 0, 0, -2424791, 0, 0, -2424790, 0, 0, -2424789, 0, 0, -2424788, 0, 0, -2424787, 0, 0, -2424786, 0, 0, -2424785, 0, 0, -2424784, 0, 0, -2424783, 0, 0, -2424782, 0, 0, -2424781, 0, 0, -2424780, 0, 0, -2424779, 0, 0, -2424778, 6, 0, -2359289, 1, 0, -2359288, 0, 0, -2359287, 0, 0, -2359286, 0, 0, -2359285, 0, 0, -2359284, 0, 0, -2359283, 0, 0, -2359282, 0, 0, -2359281, 0, 0, -2359280, 0, 0, -2359279, 0, 0, -2359278, 0, 0, -2359277, 0, 0, -2359276, 0, 0, -2359275, 0, 0, -2359274, 0, 0, -2359273, 1, 0, -2359272, 0, 0, -2359271, 0, 0, -2359270, 0, 0, -2359269, 0, 0, -2359268, 0, 0, -2359267, 0, 0, -2359266, 0, 0, -2359265, 1, 0, -2359264, 0, 0, -2359263, 0, 0, -2359262, 0, 0, -2359261, 0, 0, -2359260, 0, 0, -2359259, 0, 0, -2359258, 0, 0, -2359257, 0, 0, -2359256, 0, 0, -2359255, 0, 0, -2359254, 0, 0, -2359253, 0, 0, -2359252, 0, 0, -2359251, 0, 0, -2359250, 0, 0, -2359249, 0, 0, -2359248, 0, 0, -2359247, 0, 0, -2359246, 0, 0, -2359245, 0, 0, -2359244, 0, 0, -2359243, 6, 0, -2293752, 1, 0, -2293751, 0, 0, -2293750, 0, 0, -2293749, 0, 0, -2293748, 0, 0, -2293747, 0, 0, -2293746, 0, 0, -2293745, 0, 0, -2293744, 0, 0, -2293743, 0, 0, -2293742, 0, 0, -2293741, 0, 0, -2293740, 0, 0, -2293739, 0, 0, -2293738, 0, 0, -2293737, 0, 0, -2293736, 1, 0, -2293735, 0, 0, -2293734, 0, 0, -2293733, 0, 0, -2293732, 0, 0, -2293731, 0, 0, -2293730, 0, 0, -2293729, 0, 0, -2293728, 0, 0, -2293727, 0, 0, -2293726, 0, 0, -2293725, 0, 0, -2293724, 0, 0, -2293723, 0, 0, -2293722, 0, 0, -2293721, 0, 0, -2293720, 0, 0, -2293719, 0, 0, -2293718, 0, 0, -2293717, 0, 0, -2293716, 0, 0, -2293715, 0, 0, -2293714, 0, 0, -2293713, 0, 0, -2293712, 0, 0, -2293711, 0, 0, -2293710, 0, 0, -2293709, 0, 0, -2293708, 6, 0, -2228215, 1, 0, -2228214, 0, 0, -2228213, 0, 0, -2228212, 0, 0, -2228211, 0, 0, -2228210, 0, 0, -2228209, 0, 0, -2228208, 0, 0, -2228207, 0, 0, -2228206, 0, 0, -2228205, 0, 0, -2228204, 0, 0, -2228203, 0, 0, -2228202, 0, 0, -2228201, 0, 0, -2228200, 0, 0, -2228199, 1, 0, -2228198, 0, 0, -2228197, 0, 0, -2228196, 0, 0, -2228195, 0, 0, -2228194, 0, 0, -2228193, 0, 0, -2228192, 0, 0, -2228191, 0, 0, -2228190, 0, 0, -2228189, 0, 0, -2228188, 0, 0, -2228187, 0, 0, -2228186, 0, 0, -2228185, 0, 0, -2228184, 1, 0, -2228183, 1, 0, -2228182, 1, 0, -2228181, 1, 0, -2228180, 1, 0, -2228179, 1, 0, -2228178, 1, 0, -2228177, 1, 0, -2228176, 1, 0, -2228175, 1, 0, -2228174, 1, 0, -2228173, 1, 0, -2162678, 1, 0, -2162677, 0, 0, -2162676, 0, 0, -2162675, 0, 0, -2162674, 0, 0, -2162673, 0, 0, -2162672, 0, 0, -2162671, 0, 0, -2162670, 0, 0, -2162669, 0, 0, -2162668, 0, 0, -2162667, 0, 0, -2162666, 0, 0, -2162665, 0, 0, -2162664, 0, 0, -2162663, 0, 0, -2162662, 1, 0, -2162661, 0, 0, -2162660, 0, 0, -2162659, 0, 0, -2162658, 0, 0, -2162657, 0, 0, -2162656, 0, 0, -2162655, 0, 0, -2162654, 0, 0, -2162653, 0, 0, -2162652, 0, 0, -2162651, 0, 0, -2162650, 0, 0, -2162649, 6, 0, -2097141, 1, 0, -2097140, 0, 0, -2097139, 0, 0, -2097138, 0, 0, -2097137, 0, 0, -2097136, 0, 0, -2097135, 0, 0, -2097134, 0, 0, -2097133, 0, 0, -2097132, 0, 0, -2097131, 0, 0, -2097130, 0, 0, -2097129, 0, 0, -2097128, 0, 0, -2097127, 0, 0, -2097126, 0, 0, -2097125, 1, 0, -2097124, 0, 0, -2097123, 0, 0, -2097122, 0, 0, -2097121, 0, 0, -2097120, 0, 0, -2097119, 0, 0, -2097117, 0, 0, -2097116, 0, 0, -2097115, 0, 0, -2097114, 6, 0, -2031604, 1, 0, -2031603, 0, 0, -2031602, 0, 0, -2031601, 0, 0, -2031600, 0, 0, -2031599, 0, 0, -2031598, 0, 0, -2031597, 0, 0, -2031596, 0, 0, -2031595, 0, 0, -2031594, 0, 0, -2031593, 0, 0, -2031592, 0, 0, -2031591, 0, 0, -2031590, 0, 0, -2031589, 0, 0, -2031588, 1, 0, -2031587, 0, 0, -2031586, 0, 0, -2031585, 0, 0, -2031584, 0, 0, -2031583, 0, 0, -2031581, 0, 0, -2031580, 0, 0, -2031579, 6, 0, -1966067, 1, 0, -1966066, 0, 0, -1966065, 0, 0, -1966064, 0, 0, -1966063, 0, 0, -1966062, 0, 0, -1966061, 0, 0, -1966060, 0, 0, -1966059, 0, 0, -1966058, 0, 0, -1966057, 0, 0, -1966056, 0, 0, -1966055, 0, 0, -1966054, 0, 0, -1966053, 0, 0, -1966052, 0, 0, -1966051, 1, 0, -1966050, 0, 0, -1966049, 0, 0, -1966048, 0, 0, -1966047, 0, 0, -1966046, 0, 0, -1966044, 6, 0, -1900530, 1, 0, -1900529, 0, 0, -1900528, 0, 0, -1900527, 0, 0, -1900526, 0, 0, -1900525, 0, 0, -1900524, 0, 0, -1900523, 0, 0, -1900522, 0, 0, -1900521, 0, 0, -1900520, 0, 0, -1900519, 0, 0, -1900518, 0, 0, -1900517, 0, 0, -1900516, 0, 0, -1900515, 0, 0, -1900514, 1, 0, -1900513, 0, 0, -1900512, 0, 0, -1900511, 0, 0, -1900509, 6, 0, -1834993, 1, 0, -1834992, 0, 0, -1834991, 0, 0, -1834990, 0, 0, -1834989, 0, 0, -1834988, 0, 0, -1834987, 0, 0, -1834986, 0, 0, -1834985, 0, 0, -1834984, 0, 0, -1834983, 0, 0, -1834982, 0, 0, -1834981, 0, 0, -1834980, 0, 0, -1834979, 0, 0, -1834978, 0, 0, -1834977, 1, 0, -1834973, 1, 0, -1769456, 1, 0, -1769455, 0, 0, -1769454, 0, 0, -1769453, 0, 0, -1769452, 0, 0, -1769451, 0, 0, -1769450, 0, 0, -1769449, 0, 0, -1769448, 0, 0, -1769447, 0, 0, -1769446, 0, 0, -1769445, 0, 0, -1769444, 0, 0, -1769443, 0, 0, -1769442, 0, 0, -1769441, 0, 0, -1703919, 1, 0, -1703918, 0, 0, -1703917, 0, 0, -1703916, 0, 0, -1703915, 0, 0, -1703914, 0, 0, -1703913, 0, 0, -1703912, 0, 0, -1703911, 0, 0, -1703910, 0, 0, -1703909, 0, 0, -1703908, 0, 0, -1703907, 0, 0, -1703906, 0, 0, -1703905, 0, 0, -1638382, 1, 0, -1638381, 0, 0, -1638380, 0, 0, -1638379, 0, 0, -1638378, 0, 0, -1638377, 0, 0, -1638376, 0, 0, -1638375, 0, 0, -1638374, 0, 0, -1638373, 0, 0, -1638372, 0, 0, -1638371, 0, 0, -1638370, 0, 0, -1572845, 1, 0, -1572844, 0, 0, -1572843, 0, 0, -1572842, 0, 0, -1572841, 0, 0, -1572840, 0, 0, -1572839, 0, 0, -1572838, 0, 0, -1572837, 0, 0, -1572836, 0, 0, -1572835, 0, 0, -1507308, 1, 0, -1507307, 0, 0, -1507306, 0, 0, -1507305, 0, 0, -1507304, 0, 0, -1507303, 0, 0, -1507302, 0, 0, -1507301, 0, 0, -1507300, 0, 0, -1441771, 1, 0, -1441770, 0, 0, -1441769, 0, 0, -1441768, 0, 0, -1441767, 0, 0, -1441766, 0, 0, -1441765, 0, 0, -1376234, 1, 0, -1376233, 0, 0, -1376232, 0, 0, -1376231, 0, 0, -1376230, 0, 0, -1310697, 1, 0, -1310696, 0, 0, -1310695, 0, 0, -983005, 2, 0, -982999, 2, 0, -524263, 0, 0, -524262, 0, 0, -524261, 0, 0, -524260, 0, 0, -65529, 2, 0, 7, 2, 0, 65543, 2, 0, 262151, 2, 0, 327687, 2, 0, 327722, 5, 0, 393223, 2, 0, 524327, 5, 0 )

[node name="HealthPickup3" parent="InsanityTileMap" groups=[
"insanity-object",
] instance=ExtResource( 7 )]
position = Vector2( 2650.3, -970.102 )

[node name="HealthPickup4" parent="InsanityTileMap" groups=[
"insanity-object",
] instance=ExtResource( 7 )]
position = Vector2( 2722.3, -970.102 )

[node name="HealthPickup5" parent="InsanityTileMap" groups=[
"insanity-object",
] instance=ExtResource( 7 )]
position = Vector2( 2688.32, -939.156 )

[node name="RunnerMonster" parent="InsanityTileMap" groups=[
"insanity-object",
] instance=ExtResource( 2 )]
position = Vector2( 2490.57, 444.434 )

[node name="RunnerMonster2" parent="InsanityTileMap" groups=[
"insanity-object",
] instance=ExtResource( 2 )]
position = Vector2( 2740.23, 562.419 )

[node name="RunnerMonster5" parent="InsanityTileMap" groups=[
"insanity-object",
] instance=ExtResource( 2 )]
position = Vector2( 3140.26, 24.7048 )

[node name="RunnerMonster6" parent="InsanityTileMap" groups=[
"insanity-object",
] instance=ExtResource( 2 )]
position = Vector2( 3223.42, -241.139 )

[node name="RunnerMonster7" parent="InsanityTileMap" groups=[
"insanity-object",
] instance=ExtResource( 2 )]
position = Vector2( 2686.69, -528.401 )

[node name="RunnerMonster8" parent="InsanityTileMap" groups=[
"insanity-object",
] instance=ExtResource( 2 )]
position = Vector2( 2514.08, -519.581 )

[node name="RunnerMonster9" parent="InsanityTileMap" groups=[
"insanity-object",
] instance=ExtResource( 2 )]
position = Vector2( 2224.3, -530.92 )

[node name="RunnerMonster10" parent="InsanityTileMap" groups=[
"insanity-object",
] instance=ExtResource( 2 )]
position = Vector2( 2359.11, -534.7 )

[node name="RunnerMonster11" parent="InsanityTileMap" groups=[
"insanity-object",
] instance=ExtResource( 2 )]
position = Vector2( 2286.04, -418.787 )

[node name="RunnerMonster12" parent="InsanityTileMap" groups=[
"insanity-object",
] instance=ExtResource( 2 )]
position = Vector2( 2608.58, -399.889 )

[node name="RunnerMonster13" parent="InsanityTileMap" groups=[
"insanity-object",
] instance=ExtResource( 2 )]
position = Vector2( 2608.58, -399.889 )

[node name="RunnerMonster14" parent="InsanityTileMap" groups=[
"insanity-object",
] instance=ExtResource( 2 )]
position = Vector2( 4280.6, 230.391 )

[node name="RunnerMonster15" parent="InsanityTileMap" groups=[
"insanity-object",
] instance=ExtResource( 2 )]
position = Vector2( 4154.55, 299.365 )

[node name="RunnerMonster16" parent="InsanityTileMap" groups=[
"insanity-object",
] instance=ExtResource( 2 )]
position = Vector2( 4493.09, 294.02 )

[node name="RunnerMonster3" parent="InsanityTileMap" groups=[
"insanity-object",
] instance=ExtResource( 2 )]
position = Vector2( 1772.23, 991.419 )

[node name="RunnerMonster4" parent="InsanityTileMap" groups=[
"insanity-object",
] instance=ExtResource( 2 )]
position = Vector2( 1476.97, 984.275 )

[node name="StumpMonster" parent="InsanityTileMap" groups=[
"insanity-object",
] instance=ExtResource( 6 )]
position = Vector2( -137.487, 209.356 )

[node name="StumpMonster2" parent="InsanityTileMap" groups=[
"insanity-object",
] instance=ExtResource( 6 )]
position = Vector2( 2997.23, -402.563 )

[node name="StumpMonster3" parent="InsanityTileMap" groups=[
"insanity-object",
] instance=ExtResource( 6 )]
position = Vector2( 3401.22, -559.078 )

[node name="StumpMonster4" parent="InsanityTileMap" groups=[
"insanity-object",
] instance=ExtResource( 6 )]
position = Vector2( 3722.92, -175.885 )

[node name="HealthPickup" parent="InsanityTileMap" groups=[
"insanity-object",
] instance=ExtResource( 7 )]
position = Vector2( -488.981, 349.786 )

[node name="HealthPickup2" parent="InsanityTileMap" groups=[
"insanity-object",
] instance=ExtResource( 7 )]
position = Vector2( -487.299, 447.33 )

[node name="ItemPickup" parent="InsanityTileMap" groups=[
"insanity-object",
] instance=ExtResource( 8 )]
position = Vector2( 4704.96, 253.062 )
weapon_type = 4

[node name="Lever" parent="InsanityTileMap" groups=[
"insanity-object",
] instance=ExtResource( 12 )]
position = Vector2( 432.19, -94.5684 )
target = NodePath("../../TileMap/ElevatorDoor")

[node name="HiddenFace" parent="InsanityTileMap" instance=ExtResource( 22 )]
position = Vector2( 1756.34, 319.276 )
rotation = -0.171463

[node name="LevelTransition" parent="." instance=ExtResource( 3 )]
visible = false
transition_in = true

[node name="BGMusic" type="AudioStreamPlayer" parent="."]
stream = ExtResource( 14 )
volume_db = -30.0
bus = "BG Music"

[node name="BGMusicPlayer" type="AnimationPlayer" parent="BGMusic"]
anims/fade-in = SubResource( 8 )

[node name="BGMusicDistort" type="AnimationPlayer" parent="BGMusic"]
autoplay = "normal"
anims/distort = SubResource( 9 )
anims/normal = SubResource( 10 )

[connection signal="insanity_change" from="TileMap/Player" to="." method="_on_Player_insanity_change"]
[connection signal="restart_level" from="TileMap/Player" to="." method="_on_Player_restart_level"]
