[gd_scene load_steps=4 format=2]

[ext_resource path="res://demigod-oldschool/DemigoD Oldschool.ttf" type="DynamicFontData" id=1]
[ext_resource path="res://SoundSlider.gd" type="Script" id=2]

[sub_resource type="DynamicFont" id=1]
size = 32
font_data = ExtResource( 1 )

[node name="SoundSlider" type="HSlider"]
margin_left = -1.76083
margin_top = 1.29877
margin_right = 235.239
margin_bottom = 17.2988
value = 50.0
rounded = true
script = ExtResource( 2 )
__meta__ = {
"_edit_use_anchors_": false
}

[node name="Label" type="Label" parent="."]
margin_left = -204.948
margin_top = -11.0813
margin_right = -15.9483
margin_bottom = 24.9187
custom_fonts/font = SubResource( 1 )
text = "Sound Effects"
__meta__ = {
"_edit_use_anchors_": false
}

[node name="CheckBox" type="CheckBox" parent="."]
margin_left = 242.789
margin_top = -3.85724
margin_right = 304.789
margin_bottom = 20.1428
text = "mute"

[connection signal="value_changed" from="." to="." method="_on_SoundSlider_value_changed"]
[connection signal="pressed" from="CheckBox" to="." method="_on_CheckBox_pressed"]
