[gd_scene load_steps=6 format=2]

[ext_resource path="res://enemies/stump-ooze.png" type="Texture" id=1]
[ext_resource path="res://enemies/StumpOoze.gd" type="Script" id=2]

[sub_resource type="Animation" id=1]
resource_name = "default"
length = 0.4
loop = true
tracks/0/type = "value"
tracks/0/path = NodePath("stump-ooze:frame")
tracks/0/interp = 1
tracks/0/loop_wrap = true
tracks/0/imported = false
tracks/0/enabled = true
tracks/0/keys = {
"times": PoolRealArray( 0, 0.1, 0.2, 0.3 ),
"transitions": PoolRealArray( 1, 1, 1, 1 ),
"update": 1,
"values": [ 0, 1, 2, 3 ]
}

[sub_resource type="Animation" id=2]
resource_name = "despawn"
tracks/0/type = "method"
tracks/0/path = NodePath(".")
tracks/0/interp = 1
tracks/0/loop_wrap = true
tracks/0/imported = false
tracks/0/enabled = true
tracks/0/keys = {
"times": PoolRealArray( 0 ),
"transitions": PoolRealArray( 1 ),
"values": [ {
"args": [  ],
"method": "queue_free"
} ]
}

[sub_resource type="RectangleShape2D" id=3]
extents = Vector2( 19.9007, 11.6092 )

[node name="StumpOoze" type="Node2D"]
script = ExtResource( 2 )

[node name="stump-ooze" type="Sprite" parent="."]
position = Vector2( 0, -12 )
scale = Vector2( 2.5, 2.5 )
texture = ExtResource( 1 )
hframes = 4
frame = 3

[node name="AnimationPlayer" type="AnimationPlayer" parent="."]
autoplay = "default"
playback_speed = 0.5
anims/default = SubResource( 1 )
anims/despawn = SubResource( 2 )

[node name="Hitbox" type="Area2D" parent="." groups=[
"monster",
]]
position = Vector2( 0, -8 )
monitorable = false

[node name="CollisionShape2D" type="CollisionShape2D" parent="Hitbox"]
position = Vector2( 0.187286, 0.18729 )
shape = SubResource( 3 )

[node name="Timer" type="Timer" parent="."]
wait_time = 15.0
one_shot = true
autostart = true

[connection signal="body_entered" from="Hitbox" to="." method="_on_Hitbox_body_entered"]
[connection signal="timeout" from="Timer" to="." method="_on_Timer_timeout"]
